C:/Users/c.manzar/STM32CubeIDE/workspace_1.12.0/STM32MP1_openAMP_fw/Drivers/STM32MP1xx_HAL_Driver/Src/stm32mp1xx_hal_dma_ex.c:122:19:HAL_DMAEx_MultiBufferStart	32	static
C:/Users/c.manzar/STM32CubeIDE/workspace_1.12.0/STM32MP1_openAMP_fw/Drivers/STM32MP1xx_HAL_Driver/Src/stm32mp1xx_hal_dma_ex.c:199:19:HAL_DMAEx_MultiBufferStart_IT	32	static
C:/Users/c.manzar/STM32CubeIDE/workspace_1.12.0/STM32MP1_openAMP_fw/Drivers/STM32MP1xx_HAL_Driver/Src/stm32mp1xx_hal_dma_ex.c:302:19:HAL_DMAEx_ChangeMemory	24	static
C:/Users/c.manzar/STM32CubeIDE/workspace_1.12.0/STM32MP1_openAMP_fw/Drivers/STM32MP1xx_HAL_Driver/Src/stm32mp1xx_hal_dma_ex.c:325:19:HAL_DMAEx_ConfigMuxSync	24	static
C:/Users/c.manzar/STM32CubeIDE/workspace_1.12.0/STM32MP1_openAMP_fw/Drivers/STM32MP1xx_HAL_Driver/Src/stm32mp1xx_hal_dma_ex.c:385:19:HAL_DMAEx_ConfigMuxRequestGenerator	24	static
C:/Users/c.manzar/STM32CubeIDE/workspace_1.12.0/STM32MP1_openAMP_fw/Drivers/STM32MP1xx_HAL_Driver/Src/stm32mp1xx_hal_dma_ex.c:443:19:HAL_DMAEx_EnableMuxRequestGenerator	16	static
C:/Users/c.manzar/STM32CubeIDE/workspace_1.12.0/STM32MP1_openAMP_fw/Drivers/STM32MP1xx_HAL_Driver/Src/stm32mp1xx_hal_dma_ex.c:470:19:HAL_DMAEx_DisableMuxRequestGenerator	16	static
C:/Users/c.manzar/STM32CubeIDE/workspace_1.12.0/STM32MP1_openAMP_fw/Drivers/STM32MP1xx_HAL_Driver/Src/stm32mp1xx_hal_dma_ex.c:497:6:HAL_DMAEx_MUX_IRQHandler	16	static
C:/Users/c.manzar/STM32CubeIDE/workspace_1.12.0/STM32MP1_openAMP_fw/Drivers/STM32MP1xx_HAL_Driver/Src/stm32mp1xx_hal_dma_ex.c:563:13:DMA_MultiBufferSetConfig	24	static
