C:/Users/c.manzar/STM32CubeIDE/workspace_1.12.0/STM32MP1_openAMP_fw/Drivers/STM32MP1xx_HAL_Driver/Src/stm32mp1xx_hal.c:153:19:HAL_Init	8	static
C:/Users/c.manzar/STM32CubeIDE/workspace_1.12.0/STM32MP1_openAMP_fw/Drivers/STM32MP1xx_HAL_Driver/Src/stm32mp1xx_hal.c:181:19:HAL_DeInit	8	static
C:/Users/c.manzar/STM32CubeIDE/workspace_1.12.0/STM32MP1_openAMP_fw/Drivers/STM32MP1xx_HAL_Driver/Src/stm32mp1xx_hal.c:197:13:HAL_MspInit	4	static
C:/Users/c.manzar/STM32CubeIDE/workspace_1.12.0/STM32MP1_openAMP_fw/Drivers/STM32MP1xx_HAL_Driver/Src/stm32mp1xx_hal.c:208:13:HAL_MspDeInit	4	static
C:/Users/c.manzar/STM32CubeIDE/workspace_1.12.0/STM32MP1_openAMP_fw/Drivers/STM32MP1xx_HAL_Driver/Src/stm32mp1xx_hal.c:231:26:HAL_InitTick	16	static
C:/Users/c.manzar/STM32CubeIDE/workspace_1.12.0/STM32MP1_openAMP_fw/Drivers/STM32MP1xx_HAL_Driver/Src/stm32mp1xx_hal.c:348:13:HAL_IncTick	4	static
C:/Users/c.manzar/STM32CubeIDE/workspace_1.12.0/STM32MP1_openAMP_fw/Drivers/STM32MP1xx_HAL_Driver/Src/stm32mp1xx_hal.c:359:17:HAL_GetTick	4	static
C:/Users/c.manzar/STM32CubeIDE/workspace_1.12.0/STM32MP1_openAMP_fw/Drivers/STM32MP1xx_HAL_Driver/Src/stm32mp1xx_hal.c:388:10:HAL_GetTickPrio	4	static
C:/Users/c.manzar/STM32CubeIDE/workspace_1.12.0/STM32MP1_openAMP_fw/Drivers/STM32MP1xx_HAL_Driver/Src/stm32mp1xx_hal.c:397:19:HAL_SetTickFreq	24	static
C:/Users/c.manzar/STM32CubeIDE/workspace_1.12.0/STM32MP1_openAMP_fw/Drivers/STM32MP1xx_HAL_Driver/Src/stm32mp1xx_hal.c:428:21:HAL_GetTickFreq	4	static
C:/Users/c.manzar/STM32CubeIDE/workspace_1.12.0/STM32MP1_openAMP_fw/Drivers/STM32MP1xx_HAL_Driver/Src/stm32mp1xx_hal.c:445:13:HAL_Delay	24	static
C:/Users/c.manzar/STM32CubeIDE/workspace_1.12.0/STM32MP1_openAMP_fw/Drivers/STM32MP1xx_HAL_Driver/Src/stm32mp1xx_hal.c:471:13:HAL_SuspendTick	4	static
C:/Users/c.manzar/STM32CubeIDE/workspace_1.12.0/STM32MP1_openAMP_fw/Drivers/STM32MP1xx_HAL_Driver/Src/stm32mp1xx_hal.c:490:13:HAL_ResumeTick	4	static
C:/Users/c.manzar/STM32CubeIDE/workspace_1.12.0/STM32MP1_openAMP_fw/Drivers/STM32MP1xx_HAL_Driver/Src/stm32mp1xx_hal.c:503:10:HAL_GetHalVersion	4	static
C:/Users/c.manzar/STM32CubeIDE/workspace_1.12.0/STM32MP1_openAMP_fw/Drivers/STM32MP1xx_HAL_Driver/Src/stm32mp1xx_hal.c:512:10:HAL_GetREVID	4	static
C:/Users/c.manzar/STM32CubeIDE/workspace_1.12.0/STM32MP1_openAMP_fw/Drivers/STM32MP1xx_HAL_Driver/Src/stm32mp1xx_hal.c:521:10:HAL_GetDEVID	4	static
C:/Users/c.manzar/STM32CubeIDE/workspace_1.12.0/STM32MP1_openAMP_fw/Drivers/STM32MP1xx_HAL_Driver/Src/stm32mp1xx_hal.c:530:10:HAL_GetUIDw0	4	static
C:/Users/c.manzar/STM32CubeIDE/workspace_1.12.0/STM32MP1_openAMP_fw/Drivers/STM32MP1xx_HAL_Driver/Src/stm32mp1xx_hal.c:539:10:HAL_GetUIDw1	4	static
C:/Users/c.manzar/STM32CubeIDE/workspace_1.12.0/STM32MP1_openAMP_fw/Drivers/STM32MP1xx_HAL_Driver/Src/stm32mp1xx_hal.c:548:10:HAL_GetUIDw2	4	static
C:/Users/c.manzar/STM32CubeIDE/workspace_1.12.0/STM32MP1_openAMP_fw/Drivers/STM32MP1xx_HAL_Driver/Src/stm32mp1xx_hal.c:557:6:HAL_EnableDBGWakeUp	4	static
C:/Users/c.manzar/STM32CubeIDE/workspace_1.12.0/STM32MP1_openAMP_fw/Drivers/STM32MP1xx_HAL_Driver/Src/stm32mp1xx_hal.c:570:6:HAL_DisableDBGWakeUp	4	static
C:/Users/c.manzar/STM32CubeIDE/workspace_1.12.0/STM32MP1_openAMP_fw/Drivers/STM32MP1xx_HAL_Driver/Src/stm32mp1xx_hal.c:583:6:HAL_EnableDBGSleepMode	4	static
C:/Users/c.manzar/STM32CubeIDE/workspace_1.12.0/STM32MP1_openAMP_fw/Drivers/STM32MP1xx_HAL_Driver/Src/stm32mp1xx_hal.c:592:6:HAL_DisableDBGSleepMode	4	static
C:/Users/c.manzar/STM32CubeIDE/workspace_1.12.0/STM32MP1_openAMP_fw/Drivers/STM32MP1xx_HAL_Driver/Src/stm32mp1xx_hal.c:601:6:HAL_EnableDBGStopMode	4	static
C:/Users/c.manzar/STM32CubeIDE/workspace_1.12.0/STM32MP1_openAMP_fw/Drivers/STM32MP1xx_HAL_Driver/Src/stm32mp1xx_hal.c:610:6:HAL_DisableDBGStopMode	4	static
C:/Users/c.manzar/STM32CubeIDE/workspace_1.12.0/STM32MP1_openAMP_fw/Drivers/STM32MP1xx_HAL_Driver/Src/stm32mp1xx_hal.c:619:6:HAL_EnableDBGStandbyMode	4	static
C:/Users/c.manzar/STM32CubeIDE/workspace_1.12.0/STM32MP1_openAMP_fw/Drivers/STM32MP1xx_HAL_Driver/Src/stm32mp1xx_hal.c:628:6:HAL_DisableDBGStandbyMode	4	static
C:/Users/c.manzar/STM32CubeIDE/workspace_1.12.0/STM32MP1_openAMP_fw/Drivers/STM32MP1xx_HAL_Driver/Src/stm32mp1xx_hal.c:648:6:HAL_SYSCFG_VREFBUF_VoltageScalingConfig	16	static
C:/Users/c.manzar/STM32CubeIDE/workspace_1.12.0/STM32MP1_openAMP_fw/Drivers/STM32MP1xx_HAL_Driver/Src/stm32mp1xx_hal.c:664:6:HAL_SYSCFG_VREFBUF_HighImpedanceConfig	16	static
C:/Users/c.manzar/STM32CubeIDE/workspace_1.12.0/STM32MP1_openAMP_fw/Drivers/STM32MP1xx_HAL_Driver/Src/stm32mp1xx_hal.c:676:6:HAL_SYSCFG_VREFBUF_TrimmingConfig	16	static
C:/Users/c.manzar/STM32CubeIDE/workspace_1.12.0/STM32MP1_openAMP_fw/Drivers/STM32MP1xx_HAL_Driver/Src/stm32mp1xx_hal.c:688:19:HAL_SYSCFG_EnableVREFBUF	16	static
C:/Users/c.manzar/STM32CubeIDE/workspace_1.12.0/STM32MP1_openAMP_fw/Drivers/STM32MP1xx_HAL_Driver/Src/stm32mp1xx_hal.c:714:6:HAL_SYSCFG_DisableVREFBUF	4	static
C:/Users/c.manzar/STM32CubeIDE/workspace_1.12.0/STM32MP1_openAMP_fw/Drivers/STM32MP1xx_HAL_Driver/Src/stm32mp1xx_hal.c:729:6:HAL_SYSCFG_ETHInterfaceSelect	16	static
C:/Users/c.manzar/STM32CubeIDE/workspace_1.12.0/STM32MP1_openAMP_fw/Drivers/STM32MP1xx_HAL_Driver/Src/stm32mp1xx_hal.c:752:6:HAL_SYSCFG_AnalogSwitchConfig	16	static
C:/Users/c.manzar/STM32CubeIDE/workspace_1.12.0/STM32MP1_openAMP_fw/Drivers/STM32MP1xx_HAL_Driver/Src/stm32mp1xx_hal.c:771:6:HAL_SYSCFG_EnableBOOST	4	static
C:/Users/c.manzar/STM32CubeIDE/workspace_1.12.0/STM32MP1_openAMP_fw/Drivers/STM32MP1xx_HAL_Driver/Src/stm32mp1xx_hal.c:784:6:HAL_SYSCFG_DisableBOOST	4	static
C:/Users/c.manzar/STM32CubeIDE/workspace_1.12.0/STM32MP1_openAMP_fw/Drivers/STM32MP1xx_HAL_Driver/Src/stm32mp1xx_hal.c:796:6:HAL_EnableCompensationCell	4	static
C:/Users/c.manzar/STM32CubeIDE/workspace_1.12.0/STM32MP1_openAMP_fw/Drivers/STM32MP1xx_HAL_Driver/Src/stm32mp1xx_hal.c:811:6:HAL_DisableCompensationCell	4	static
C:/Users/c.manzar/STM32CubeIDE/workspace_1.12.0/STM32MP1_openAMP_fw/Drivers/STM32MP1xx_HAL_Driver/Src/stm32mp1xx_hal.c:835:6:HAL_SYSCFG_EnableIOSpeedOptimize	16	static
C:/Users/c.manzar/STM32CubeIDE/workspace_1.12.0/STM32MP1_openAMP_fw/Drivers/STM32MP1xx_HAL_Driver/Src/stm32mp1xx_hal.c:854:6:HAL_SYSCFG_DisableIOSpeedOptimize	16	static
C:/Users/c.manzar/STM32CubeIDE/workspace_1.12.0/STM32MP1_openAMP_fw/Drivers/STM32MP1xx_HAL_Driver/Src/stm32mp1xx_hal.c:867:6:HAL_SYSCFG_CompensationCodeSelect	16	static
C:/Users/c.manzar/STM32CubeIDE/workspace_1.12.0/STM32MP1_openAMP_fw/Drivers/STM32MP1xx_HAL_Driver/Src/stm32mp1xx_hal.c:884:6:HAL_SYSCFG_CompensationCodeConfig	16	static
C:/Users/c.manzar/STM32CubeIDE/workspace_1.12.0/STM32MP1_openAMP_fw/Drivers/STM32MP1xx_HAL_Driver/Src/stm32mp1xx_hal.c:897:6:HAL_SYSCFG_DisableIOCompensation	16	static
C:/Users/c.manzar/STM32CubeIDE/workspace_1.12.0/STM32MP1_openAMP_fw/Drivers/STM32MP1xx_HAL_Driver/Src/stm32mp1xx_hal.c:929:19:HAL_SYSCFG_EnableIOCompensation	16	static
